test.vcd
$date
	Tue Mar 21 14:31:31 2023
$end
$version
	Icarus Verilog
$end
$timescale
	1s
$end
$scope module part_9_tb $end
$var wire 8 ! s [7:0] $end
$upscope $end
$enddefinitions $end
$comment Show the parameter values. $end
$dumpall
$end
#0
$dumpvars
b100010 !
$end
#5
b10001111 !
#10
b101101 !
#15
b11000001 !
#20
b100111 !
#25
b1001010 !
#30
b1001101 !
#35
b1100110 !
